respR - An R package for processing respirometry-related data
…
convert.do() converts dissolved oxygen units (e.g. from % to mg/L).

subsample.data() thins a large dataset by sampling every n rows.

pcrit() calculates the breakpoint in metabolic rate, based on methods in Yeager and Ultsch (1989).

2. A typical workflow

To explore respR and its main functions we load the first example data, urchin2013. The dataset contains measurements of oxygen consumption in 16 individual sea urchins (Heliocidaris erythrogramma) and 2 “blank” measurements of background respiration (Harianto, unpublished). Detailed information about the data, including its source and methods, can be obtained with the command ?urchin2013.

library(respR)
data(urchin2013)
urchin2013
#> # A tibble: 271 x 19
#>    time.min     a     b     c     d     e     f     g     h     i     j
#>       <dbl> <dbl> <dbl> <dbl> <dbl> <dbl> <dbl> <dbl> <dbl> <dbl> <dbl>
#>  1      0.0  7.86  7.86  7.64  7.65  7.87  7.74  7.62  7.65  7.96  7.75
#>  2      0.2  7.87  7.79  7.60  7.71  7.87  7.72  7.61  7.66  7.97  7.72
#>  3      0.3  7.89  7.70  7.60  7.70  7.90  7.72  7.61  7.63  7.98  7.72
#>  4      0.5  7.90  7.68  7.60  7.72  7.92  7.74  7.62  7.66  7.97  7.72
#>  5      0.7  7.87  7.64  7.60  7.67  7.90  7.73  7.59  7.65  7.95  7.71
#>  6      0.8  7.82  7.69  7.61  7.61  7.88  7.70  7.60  7.65  7.94  7.70
#>  7      1.0  7.84  7.69  7.56  7.62  7.85  7.70  7.60  7.67  7.95  7.69
#>  8      1.2  7.84  7.66  7.59  7.63  7.83  7.69  7.60  7.69  7.96  7.70
#>  9      1.3  7.86  7.65  7.59  7.63  7.82  7.64  7.62  7.65  7.94  7.67
#> 10      1.5  7.81  7.64  7.59  7.57  7.85  7.64  7.61  7.66  7.96  7.66
#> # ... with 261 more rows, and 8 more variables: k <dbl>, l <dbl>, m <dbl>,
#> #   n <dbl>, o <dbl>, p <dbl>, b1 <dbl>, b2 <dbl>
…
